^F:\REPOSITORY\С++\15.1\HELLOWORLD15\HELLOITSWORKHOME_15.4\HELLOITSWORKHOME_15.4.CPP
F:\REPOSITORY\С++\15.1\HELLOWORLD15\HELLOITSWORKHOME_15.4\DEBUG\VC142.PDB
F:\REPOSITORY\С++\15.1\HELLOWORLD15\HELLOITSWORKHOME_15.4\DEBUG\VC142.IDB
F:\REPOSITORY\С++\15.1\HELLOWORLD15\HELLOITSWORKHOME_15.4\DEBUG\HELLOITSWORKHOME_15.4.OBJ
